guid,captions,subtitles,artwork,dubbing,metadata,videoStatus
34f2cd61-c4d1-4d98-ab1a-1707a0c2a1f8_NT_s1_e1,Passed QC,Not Applicable,Passed QC,Not Applicable,Passed QC,Passed QC
34f2cd61-c4d1-4d98-ab1a-1707a0c2a1f8_NT_s1_e2,Passed QC,Not Applicable,Passed QC,Not Applicable,Passed QC,Passed QC
34f2cd61-c4d1-4d98-ab1a-1707a0c2a1f8_NT_s1_e3,Passed QC,Not Applicable,Passed QC,Passed QC,Passed QC,Passed QC
